<?xml version="1.0" encoding="UTF-8" standalone="no"?>
<!-- Created with Inkscape (http://www.inkscape.org/) -->

<svg
   xmlns:dc="http://purl.org/dc/elements/1.1/"
   xmlns:cc="http://creativecommons.org/ns#"
   xmlns:rdf="http://www.w3.org/1999/02/22-rdf-syntax-ns#"
   xmlns:svg="http://www.w3.org/2000/svg"
   xmlns="http://www.w3.org/2000/svg"
   xmlns:sodipodi="http://sodipodi.sourceforge.net/DTD/sodipodi-0.dtd"
   xmlns:inkscape="http://www.inkscape.org/namespaces/inkscape"
   width="1366px"
   height="768px"
   viewBox="0 0 1366 768"
   version="1.1"
   id="SVGRoot"
   inkscape:version="0.92.3 (2405546, 2018-03-11)"
   sodipodi:docname="distributed.svg">
  <sodipodi:namedview
     id="base"
     pagecolor="#ffffff"
     bordercolor="#666666"
     borderopacity="1.0"
     inkscape:pageopacity="0.0"
     inkscape:pageshadow="2"
     inkscape:zoom="0.49497475"
     inkscape:cx="677.20541"
     inkscape:cy="533.77144"
     inkscape:document-units="px"
     inkscape:current-layer="layer1"
     showgrid="false"
     inkscape:window-width="1333"
     inkscape:window-height="753"
     inkscape:window-x="36"
     inkscape:window-y="15"
     inkscape:window-maximized="0" />
  <defs
     id="defs815">
    <marker
       inkscape:stockid="Arrow2Lstart"
       orient="auto"
       refY="0.0"
       refX="0.0"
       id="Arrow2Lstart"
       style="overflow:visible"
       inkscape:isstock="true">
      <path
         id="path1095"
         style="fill-rule:evenodd;stroke-width:0.625;stroke-linejoin:round;stroke:#000000;stroke-opacity:1;fill:#000000;fill-opacity:1"
         d="M 8.7185878,4.0337352 L -2.2072895,0.016013256 L 8.7185884,-4.0017078 C 6.9730900,-1.6296469 6.9831476,1.6157441 8.7185878,4.0337352 z "
         transform="scale(1.1) translate(1,0)" />
    </marker>
    <marker
       inkscape:isstock="true"
       style="overflow:visible"
       id="marker1073"
       refX="0"
       refY="0"
       orient="auto"
       inkscape:stockid="Arrow2Lend">
      <path
         transform="matrix(-1.1,0,0,-1.1,-1.1,0)"
         d="M 8.7185878,4.0337352 -2.2072895,0.01601326 8.7185884,-4.0017078 c -1.7454984,2.3720609 -1.7354408,5.6174519 -6e-7,8.035443 z"
         style="fill:#000000;fill-opacity:1;fill-rule:evenodd;stroke:#000000;stroke-width:0.625;stroke-linejoin:round;stroke-opacity:1"
         id="path1071"
         inkscape:connector-curvature="0" />
    </marker>
    <marker
       inkscape:stockid="Arrow2Lend"
       orient="auto"
       refY="0.0"
       refX="0.0"
       id="Arrow2Lend"
       style="overflow:visible;"
       inkscape:isstock="true">
      <path
         id="path926"
         style="fill-rule:evenodd;stroke-width:0.625;stroke-linejoin:round;stroke:#000000;stroke-opacity:1;fill:#000000;fill-opacity:1"
         d="M 8.7185878,4.0337352 L -2.2072895,0.016013256 L 8.7185884,-4.0017078 C 6.9730900,-1.6296469 6.9831476,1.6157441 8.7185878,4.0337352 z "
         transform="scale(1.1) rotate(180) translate(1,0)" />
    </marker>
    <marker
       inkscape:stockid="Arrow2Lend"
       orient="auto"
       refY="0"
       refX="0"
       id="Arrow2Lend-7"
       style="overflow:visible"
       inkscape:isstock="true"
       inkscape:collect="always">
      <path
         inkscape:connector-curvature="0"
         id="path926-5"
         style="fill:#000000;fill-opacity:1;fill-rule:evenodd;stroke:#000000;stroke-width:0.625;stroke-linejoin:round;stroke-opacity:1"
         d="M 8.7185878,4.0337352 -2.2072895,0.01601326 8.7185884,-4.0017078 c -1.7454984,2.3720609 -1.7354408,5.6174519 -6e-7,8.035443 z"
         transform="matrix(-1.1,0,0,-1.1,-1.1,0)" />
    </marker>
    <marker
       inkscape:stockid="Arrow2Lend"
       orient="auto"
       refY="0"
       refX="0"
       id="Arrow2Lend-7-3"
       style="overflow:visible"
       inkscape:isstock="true">
      <path
         inkscape:connector-curvature="0"
         id="path926-5-6"
         style="fill:#000000;fill-opacity:1;fill-rule:evenodd;stroke:#000000;stroke-width:0.625;stroke-linejoin:round;stroke-opacity:1"
         d="M 8.7185878,4.0337352 -2.2072895,0.01601326 8.7185884,-4.0017078 c -1.7454984,2.3720609 -1.7354408,5.6174519 -6e-7,8.035443 z"
         transform="matrix(-1.1,0,0,-1.1,-1.1,0)" />
    </marker>
    <marker
       inkscape:stockid="Arrow2Lend"
       orient="auto"
       refY="0"
       refX="0"
       id="Arrow2Lend-7-36"
       style="overflow:visible"
       inkscape:isstock="true">
      <path
         inkscape:connector-curvature="0"
         id="path926-5-7"
         style="fill:#000000;fill-opacity:1;fill-rule:evenodd;stroke:#000000;stroke-width:0.625;stroke-linejoin:round;stroke-opacity:1"
         d="M 8.7185878,4.0337352 -2.2072895,0.01601326 8.7185884,-4.0017078 c -1.7454984,2.3720609 -1.7354408,5.6174519 -6e-7,8.035443 z"
         transform="matrix(-1.1,0,0,-1.1,-1.1,0)" />
    </marker>
    <marker
       inkscape:stockid="Arrow2Lstart"
       orient="auto"
       refY="0"
       refX="0"
       id="Arrow2Lstart-3"
       style="overflow:visible"
       inkscape:isstock="true">
      <path
         inkscape:connector-curvature="0"
         id="path1095-5"
         style="fill:#000000;fill-opacity:1;fill-rule:evenodd;stroke:#000000;stroke-width:0.625;stroke-linejoin:round;stroke-opacity:1"
         d="M 8.7185878,4.0337352 -2.2072895,0.01601326 8.7185884,-4.0017078 c -1.7454984,2.3720609 -1.7354408,5.6174519 -6e-7,8.035443 z"
         transform="matrix(1.1,0,0,1.1,1.1,0)" />
    </marker>
    <marker
       inkscape:isstock="true"
       style="overflow:visible"
       id="marker1073-6"
       refX="0"
       refY="0"
       orient="auto"
       inkscape:stockid="Arrow2Lend">
      <path
         transform="matrix(-1.1,0,0,-1.1,-1.1,0)"
         d="M 8.7185878,4.0337352 -2.2072895,0.01601326 8.7185884,-4.0017078 c -1.7454984,2.3720609 -1.7354408,5.6174519 -6e-7,8.035443 z"
         style="fill:#000000;fill-opacity:1;fill-rule:evenodd;stroke:#000000;stroke-width:0.625;stroke-linejoin:round;stroke-opacity:1"
         id="path1071-2"
         inkscape:connector-curvature="0" />
    </marker>
    <marker
       inkscape:stockid="Arrow2Lstart"
       orient="auto"
       refY="0"
       refX="0"
       id="Arrow2Lstart-3-1"
       style="overflow:visible"
       inkscape:isstock="true">
      <path
         inkscape:connector-curvature="0"
         id="path1095-5-2"
         style="fill:#000000;fill-opacity:1;fill-rule:evenodd;stroke:#000000;stroke-width:0.625;stroke-linejoin:round;stroke-opacity:1"
         d="M 8.7185878,4.0337352 -2.2072895,0.01601326 8.7185884,-4.0017078 c -1.7454984,2.3720609 -1.7354408,5.6174519 -6e-7,8.035443 z"
         transform="matrix(1.1,0,0,1.1,1.1,0)" />
    </marker>
    <marker
       inkscape:isstock="true"
       style="overflow:visible"
       id="marker1073-6-7"
       refX="0"
       refY="0"
       orient="auto"
       inkscape:stockid="Arrow2Lend">
      <path
         transform="matrix(-1.1,0,0,-1.1,-1.1,0)"
         d="M 8.7185878,4.0337352 -2.2072895,0.01601326 8.7185884,-4.0017078 c -1.7454984,2.3720609 -1.7354408,5.6174519 -6e-7,8.035443 z"
         style="fill:#000000;fill-opacity:1;fill-rule:evenodd;stroke:#000000;stroke-width:0.625;stroke-linejoin:round;stroke-opacity:1"
         id="path1071-2-0"
         inkscape:connector-curvature="0" />
    </marker>
  </defs>
  <metadata
     id="metadata818">
    <rdf:RDF>
      <cc:Work
         rdf:about="">
        <dc:format>image/svg+xml</dc:format>
        <dc:type
           rdf:resource="http://purl.org/dc/dcmitype/StillImage" />
        <dc:title />
      </cc:Work>
    </rdf:RDF>
  </metadata>
  <g
     id="layer1"
     inkscape:groupmode="layer"
     inkscape:label="Calque 1">
    <g
       id="g1195"
       transform="translate(-472.75139,265.37664)">
      <rect
         y="8.5732069"
         x="474.28571"
         height="493.71249"
         width="320"
         id="rect1393"
         style="opacity:0.76999996;fill:#90d4d4;fill-opacity:1;stroke:#000000;stroke-width:1.95803273;stroke-miterlimit:4;stroke-dasharray:none;stroke-opacity:0.97222218" />
      <rect
         y="190.92827"
         x="484.35681"
         height="294.14346"
         width="299.85776"
         id="rect1395"
         style="opacity:0.76999996;fill:#ffffff;fill-opacity:1;stroke:#000000;stroke-width:2.03225136;stroke-miterlimit:4;stroke-dasharray:none;stroke-opacity:0.97222218" />
      <text
         id="text1403"
         y="46.571426"
         x="537.88727"
         style="font-style:normal;font-weight:normal;font-size:40px;line-height:125%;font-family:sans-serif;letter-spacing:0px;word-spacing:0px;fill:#000000;fill-opacity:1;stroke:none;stroke-width:1px;stroke-linecap:butt;stroke-linejoin:miter;stroke-opacity:1"
         xml:space="preserve"><tspan
           style="font-size:32px"
           y="46.571426"
           x="537.88727"
           id="tspan1401"
           sodipodi:role="line">Computer A</tspan></text>
      <g
         transform="translate(20.000031,14.285714)"
         id="g832">
        <rect
           style="opacity:0.83699999;fill:#007979;fill-opacity:1;stroke:#000000;stroke-width:1.60819113;stroke-miterlimit:4;stroke-dasharray:none;stroke-opacity:0.97222218"
           id="rect1397"
           width="191.71039"
           height="67.424667"
           x="518.43048"
           y="70.787346"
           ry="33.712334" />
        <text
           xml:space="preserve"
           style="font-style:normal;font-weight:normal;font-size:40px;line-height:125%;font-family:sans-serif;letter-spacing:0px;word-spacing:0px;fill:#fdfdfd;fill-opacity:1;stroke:none;stroke-width:1px;stroke-linecap:butt;stroke-linejoin:miter;stroke-opacity:1"
           x="579.91064"
           y="119.41179"
           id="text1407"><tspan
             sodipodi:role="line"
             id="tspan1405"
             x="579.91064"
             y="119.41179">File</tspan></text>
      </g>
      <text
         id="text1403-3"
         y="229.40402"
         x="506.33191"
         style="font-style:normal;font-weight:normal;font-size:40px;line-height:125%;font-family:sans-serif;letter-spacing:0px;word-spacing:0px;fill:#000000;fill-opacity:1;stroke:none;stroke-width:1px;stroke-linecap:butt;stroke-linejoin:miter;stroke-opacity:1"
         xml:space="preserve"><tspan
           style="font-size:29.33333397px"
           y="229.40402"
           x="506.33191"
           id="tspan1401-6"
           sodipodi:role="line">Version Database</tspan></text>
      <g
         transform="translate(4.2857113)"
         id="g880">
        <g
           id="g857"
           transform="matrix(0.93476806,0,0,0.90483236,36.422269,14.069505)">
          <rect
             ry="32.142857"
             y="253.71428"
             x="515.71429"
             height="64.285713"
             width="238.57143"
             id="rect834"
             style="opacity:0.31700003;fill:#bcbcbc;fill-opacity:1;stroke:#000000;stroke-width:1.88999999;stroke-miterlimit:4;stroke-dasharray:none;stroke-opacity:0.97222218" />
          <text
             id="text1403-3-3"
             y="296.0784"
             x="568.29816"
             style="font-style:normal;font-weight:normal;font-size:40px;line-height:125%;font-family:sans-serif;letter-spacing:0px;word-spacing:0px;fill:#000000;fill-opacity:1;stroke:none;stroke-width:1px;stroke-linecap:butt;stroke-linejoin:miter;stroke-opacity:1"
             xml:space="preserve"><tspan
               style="font-size:29.33333397px"
               y="296.0784"
               x="568.29816"
               id="tspan1401-6-6"
               sodipodi:role="line">Version 3</tspan></text>
        </g>
        <g
           transform="matrix(0.93476806,0,0,0.90483236,36.422269,101.84721)"
           id="g857-7">
          <rect
             ry="32.142857"
             y="253.71428"
             x="515.71429"
             height="64.285713"
             width="238.57143"
             id="rect834-5"
             style="opacity:0.31700003;fill:#bcbcbc;fill-opacity:1;stroke:#000000;stroke-width:1.88999999;stroke-miterlimit:4;stroke-dasharray:none;stroke-opacity:0.97222218" />
          <text
             id="text1403-3-3-3"
             y="296.0784"
             x="568.29816"
             style="font-style:normal;font-weight:normal;font-size:40px;line-height:125%;font-family:sans-serif;letter-spacing:0px;word-spacing:0px;fill:#000000;fill-opacity:1;stroke:none;stroke-width:1px;stroke-linecap:butt;stroke-linejoin:miter;stroke-opacity:1"
             xml:space="preserve"><tspan
               style="font-size:29.33333397px"
               y="296.0784"
               x="568.29816"
               id="tspan1401-6-6-5"
               sodipodi:role="line">Version 2</tspan></text>
        </g>
        <g
           transform="matrix(0.93476806,0,0,0.90483236,36.422269,189.62492)"
           id="g857-6">
          <rect
             ry="32.142857"
             y="253.71428"
             x="515.71429"
             height="64.285713"
             width="238.57143"
             id="rect834-2"
             style="opacity:0.31700003;fill:#bcbcbc;fill-opacity:1;stroke:#000000;stroke-width:1.88999999;stroke-miterlimit:4;stroke-dasharray:none;stroke-opacity:0.97222218" />
          <text
             id="text1403-3-3-9"
             y="296.0784"
             x="568.29816"
             style="font-style:normal;font-weight:normal;font-size:40px;line-height:125%;font-family:sans-serif;letter-spacing:0px;word-spacing:0px;fill:#000000;fill-opacity:1;stroke:none;stroke-width:1px;stroke-linecap:butt;stroke-linejoin:miter;stroke-opacity:1"
             xml:space="preserve"><tspan
               style="font-size:29.33333397px"
               y="296.0784"
               x="568.29816"
               id="tspan1401-6-6-1"
               sodipodi:role="line">Version 1</tspan></text>
        </g>
      </g>
      <path
         inkscape:connector-curvature="0"
         id="path882"
         d="M 634.28571,416.57143 V 390.85714"
         style="opacity:0.5;fill:none;fill-rule:evenodd;stroke:#000000;stroke-width:2;stroke-linecap:butt;stroke-linejoin:miter;stroke-miterlimit:4;stroke-dasharray:none;stroke-opacity:1" />
      <path
         inkscape:connector-curvature="0"
         id="path882-3"
         d="M 635.71429,330.85714 V 305.14285"
         style="opacity:0.5;fill:none;fill-rule:evenodd;stroke:#000000;stroke-width:2;stroke-linecap:butt;stroke-linejoin:miter;stroke-miterlimit:4;stroke-dasharray:none;stroke-opacity:1" />
      <path
         inkscape:connector-curvature="0"
         id="path882-6"
         d="M 632.85714,183.71429 V 158"
         style="opacity:0.5;fill:none;fill-rule:evenodd;stroke:#000000;stroke-width:2;stroke-linecap:butt;stroke-linejoin:miter;stroke-miterlimit:4;stroke-dasharray:none;stroke-opacity:1;marker-end:url(#Arrow2Lend)" />
    </g>
    <g
       id="g985">
      <rect
         y="273.94986"
         x="1046.1222"
         height="493.71249"
         width="320"
         id="rect1393-5"
         style="opacity:0.76999996;fill:#90d4d4;fill-opacity:1;stroke:#000000;stroke-width:1.95803273;stroke-miterlimit:4;stroke-dasharray:none;stroke-opacity:0.97222218" />
      <rect
         y="456.3049"
         x="1056.1932"
         height="294.14346"
         width="299.85776"
         id="rect1395-6"
         style="opacity:0.76999996;fill:#ffffff;fill-opacity:1;stroke:#000000;stroke-width:2.03225136;stroke-miterlimit:4;stroke-dasharray:none;stroke-opacity:0.97222218" />
      <text
         id="text1403-2"
         y="311.94806"
         x="1109.7238"
         style="font-style:normal;font-weight:normal;font-size:40px;line-height:125%;font-family:sans-serif;letter-spacing:0px;word-spacing:0px;fill:#000000;fill-opacity:1;stroke:none;stroke-width:1px;stroke-linecap:butt;stroke-linejoin:miter;stroke-opacity:1"
         xml:space="preserve"><tspan
           style="font-size:32px"
           y="311.94806"
           x="1109.7238"
           id="tspan1401-9"
           sodipodi:role="line">Computer B</tspan></text>
      <g
         transform="translate(591.83646,279.66235)"
         id="g832-1">
        <rect
           style="opacity:0.83699999;fill:#007979;fill-opacity:1;stroke:#000000;stroke-width:1.60819113;stroke-miterlimit:4;stroke-dasharray:none;stroke-opacity:0.97222218"
           id="rect1397-2"
           width="191.71039"
           height="67.424667"
           x="518.43048"
           y="70.787346"
           ry="33.712334" />
        <text
           xml:space="preserve"
           style="font-style:normal;font-weight:normal;font-size:40px;line-height:125%;font-family:sans-serif;letter-spacing:0px;word-spacing:0px;fill:#fdfdfd;fill-opacity:1;stroke:none;stroke-width:1px;stroke-linecap:butt;stroke-linejoin:miter;stroke-opacity:1"
           x="579.91064"
           y="119.41179"
           id="text1407-7"><tspan
             sodipodi:role="line"
             id="tspan1405-0"
             x="579.91064"
             y="119.41179">File</tspan></text>
      </g>
      <text
         id="text1403-3-9"
         y="494.78067"
         x="1078.1683"
         style="font-style:normal;font-weight:normal;font-size:40px;line-height:125%;font-family:sans-serif;letter-spacing:0px;word-spacing:0px;fill:#000000;fill-opacity:1;stroke:none;stroke-width:1px;stroke-linecap:butt;stroke-linejoin:miter;stroke-opacity:1"
         xml:space="preserve"><tspan
           style="font-size:29.33333397px"
           y="494.78067"
           x="1078.1683"
           id="tspan1401-6-3"
           sodipodi:role="line">Version Database</tspan></text>
      <g
         transform="translate(576.12214,265.37664)"
         id="g880-6">
        <g
           id="g857-0"
           transform="matrix(0.93476806,0,0,0.90483236,36.422269,14.069505)">
          <rect
             ry="32.142857"
             y="253.71428"
             x="515.71429"
             height="64.285713"
             width="238.57143"
             id="rect834-6"
             style="opacity:0.31700003;fill:#bcbcbc;fill-opacity:1;stroke:#000000;stroke-width:1.88999999;stroke-miterlimit:4;stroke-dasharray:none;stroke-opacity:0.97222218" />
          <text
             id="text1403-3-3-2"
             y="296.0784"
             x="568.29816"
             style="font-style:normal;font-weight:normal;font-size:40px;line-height:125%;font-family:sans-serif;letter-spacing:0px;word-spacing:0px;fill:#000000;fill-opacity:1;stroke:none;stroke-width:1px;stroke-linecap:butt;stroke-linejoin:miter;stroke-opacity:1"
             xml:space="preserve"><tspan
               style="font-size:29.33333397px"
               y="296.0784"
               x="568.29816"
               id="tspan1401-6-6-6"
               sodipodi:role="line">Version 3</tspan></text>
        </g>
        <g
           transform="matrix(0.93476806,0,0,0.90483236,36.422269,101.84721)"
           id="g857-7-1">
          <rect
             ry="32.142857"
             y="253.71428"
             x="515.71429"
             height="64.285713"
             width="238.57143"
             id="rect834-5-8"
             style="opacity:0.31700003;fill:#bcbcbc;fill-opacity:1;stroke:#000000;stroke-width:1.88999999;stroke-miterlimit:4;stroke-dasharray:none;stroke-opacity:0.97222218" />
          <text
             id="text1403-3-3-3-7"
             y="296.0784"
             x="568.29816"
             style="font-style:normal;font-weight:normal;font-size:40px;line-height:125%;font-family:sans-serif;letter-spacing:0px;word-spacing:0px;fill:#000000;fill-opacity:1;stroke:none;stroke-width:1px;stroke-linecap:butt;stroke-linejoin:miter;stroke-opacity:1"
             xml:space="preserve"><tspan
               style="font-size:29.33333397px"
               y="296.0784"
               x="568.29816"
               id="tspan1401-6-6-5-9"
               sodipodi:role="line">Version 2</tspan></text>
        </g>
        <g
           transform="matrix(0.93476806,0,0,0.90483236,36.422269,189.62492)"
           id="g857-6-2">
          <rect
             ry="32.142857"
             y="253.71428"
             x="515.71429"
             height="64.285713"
             width="238.57143"
             id="rect834-2-0"
             style="opacity:0.31700003;fill:#bcbcbc;fill-opacity:1;stroke:#000000;stroke-width:1.88999999;stroke-miterlimit:4;stroke-dasharray:none;stroke-opacity:0.97222218" />
          <text
             id="text1403-3-3-9-2"
             y="296.0784"
             x="568.29816"
             style="font-style:normal;font-weight:normal;font-size:40px;line-height:125%;font-family:sans-serif;letter-spacing:0px;word-spacing:0px;fill:#000000;fill-opacity:1;stroke:none;stroke-width:1px;stroke-linecap:butt;stroke-linejoin:miter;stroke-opacity:1"
             xml:space="preserve"><tspan
               style="font-size:29.33333397px"
               y="296.0784"
               x="568.29816"
               id="tspan1401-6-6-1-3"
               sodipodi:role="line">Version 1</tspan></text>
        </g>
      </g>
      <path
         inkscape:connector-curvature="0"
         id="path882-7"
         d="M 1206.1221,681.94807 V 656.23378"
         style="opacity:0.5;fill:none;fill-rule:evenodd;stroke:#000000;stroke-width:2;stroke-linecap:butt;stroke-linejoin:miter;stroke-miterlimit:4;stroke-dasharray:none;stroke-opacity:1" />
      <path
         inkscape:connector-curvature="0"
         id="path882-3-5"
         d="M 1207.5507,596.23378 V 570.51949"
         style="opacity:0.5;fill:none;fill-rule:evenodd;stroke:#000000;stroke-width:2;stroke-linecap:butt;stroke-linejoin:miter;stroke-miterlimit:4;stroke-dasharray:none;stroke-opacity:1" />
      <path
         inkscape:connector-curvature="0"
         id="path882-6-9"
         d="M 1204.6936,449.09093 V 423.37664"
         style="opacity:0.5;fill:none;fill-rule:evenodd;stroke:#000000;stroke-width:2;stroke-linecap:butt;stroke-linejoin:miter;stroke-miterlimit:4;stroke-dasharray:none;stroke-opacity:1;marker-end:url(#Arrow2Lend-7)" />
    </g>
    <g
       id="g1074"
       transform="translate(16.162493,-6.0609152)">
      <rect
         y="7.2063365"
         x="507.66577"
         height="413.68021"
         width="320"
         id="rect1393-5-5"
         style="opacity:0.76999996;fill:#90d4d4;fill-opacity:1;stroke:#000000;stroke-width:1.79231882;stroke-miterlimit:4;stroke-dasharray:none;stroke-opacity:0.97222218" />
      <rect
         y="109.52912"
         x="517.73688"
         height="294.14346"
         width="299.85776"
         id="rect1395-6-3"
         style="opacity:0.76999996;fill:#ffffff;fill-opacity:1;stroke:#000000;stroke-width:2.03225136;stroke-miterlimit:4;stroke-dasharray:none;stroke-opacity:0.97222218" />
      <text
         id="text1403-2-5"
         y="72.248451"
         x="529.43921"
         style="font-style:normal;font-weight:normal;font-size:40px;line-height:125%;font-family:sans-serif;letter-spacing:0px;word-spacing:0px;fill:#000000;fill-opacity:1;stroke:none;stroke-width:1px;stroke-linecap:butt;stroke-linejoin:miter;stroke-opacity:1"
         xml:space="preserve"><tspan
           style="font-size:32px"
           y="72.248451"
           x="529.43921"
           id="tspan1401-9-6"
           sodipodi:role="line">Server Computer</tspan></text>
      <text
         id="text1403-3-9-7"
         y="148.00487"
         x="539.71198"
         style="font-style:normal;font-weight:normal;font-size:40px;line-height:125%;font-family:sans-serif;letter-spacing:0px;word-spacing:0px;fill:#000000;fill-opacity:1;stroke:none;stroke-width:1px;stroke-linecap:butt;stroke-linejoin:miter;stroke-opacity:1"
         xml:space="preserve"><tspan
           style="font-size:29.33333397px"
           y="148.00487"
           x="539.71198"
           id="tspan1401-6-3-0"
           sodipodi:role="line">Version Database</tspan></text>
      <g
         transform="translate(37.665777,-81.399148)"
         id="g880-6-9">
        <g
           id="g857-0-3"
           transform="matrix(0.93476806,0,0,0.90483236,36.422269,14.069505)">
          <rect
             ry="32.142857"
             y="253.71428"
             x="515.71429"
             height="64.285713"
             width="238.57143"
             id="rect834-6-6"
             style="opacity:0.31700003;fill:#bcbcbc;fill-opacity:1;stroke:#000000;stroke-width:1.88999999;stroke-miterlimit:4;stroke-dasharray:none;stroke-opacity:0.97222218" />
          <text
             id="text1403-3-3-2-0"
             y="296.0784"
             x="568.29816"
             style="font-style:normal;font-weight:normal;font-size:40px;line-height:125%;font-family:sans-serif;letter-spacing:0px;word-spacing:0px;fill:#000000;fill-opacity:1;stroke:none;stroke-width:1px;stroke-linecap:butt;stroke-linejoin:miter;stroke-opacity:1"
             xml:space="preserve"><tspan
               style="font-size:29.33333397px"
               y="296.0784"
               x="568.29816"
               id="tspan1401-6-6-6-6"
               sodipodi:role="line">Version 3</tspan></text>
        </g>
        <g
           transform="matrix(0.93476806,0,0,0.90483236,36.422269,101.84721)"
           id="g857-7-1-2">
          <rect
             ry="32.142857"
             y="253.71428"
             x="515.71429"
             height="64.285713"
             width="238.57143"
             id="rect834-5-8-6"
             style="opacity:0.31700003;fill:#bcbcbc;fill-opacity:1;stroke:#000000;stroke-width:1.88999999;stroke-miterlimit:4;stroke-dasharray:none;stroke-opacity:0.97222218" />
          <text
             id="text1403-3-3-3-7-1"
             y="296.0784"
             x="568.29816"
             style="font-style:normal;font-weight:normal;font-size:40px;line-height:125%;font-family:sans-serif;letter-spacing:0px;word-spacing:0px;fill:#000000;fill-opacity:1;stroke:none;stroke-width:1px;stroke-linecap:butt;stroke-linejoin:miter;stroke-opacity:1"
             xml:space="preserve"><tspan
               style="font-size:29.33333397px"
               y="296.0784"
               x="568.29816"
               id="tspan1401-6-6-5-9-8"
               sodipodi:role="line">Version 2</tspan></text>
        </g>
        <g
           transform="matrix(0.93476806,0,0,0.90483236,36.422269,189.62492)"
           id="g857-6-2-7">
          <rect
             ry="32.142857"
             y="253.71428"
             x="515.71429"
             height="64.285713"
             width="238.57143"
             id="rect834-2-0-9"
             style="opacity:0.31700003;fill:#bcbcbc;fill-opacity:1;stroke:#000000;stroke-width:1.88999999;stroke-miterlimit:4;stroke-dasharray:none;stroke-opacity:0.97222218" />
          <text
             id="text1403-3-3-9-2-2"
             y="296.0784"
             x="568.29816"
             style="font-style:normal;font-weight:normal;font-size:40px;line-height:125%;font-family:sans-serif;letter-spacing:0px;word-spacing:0px;fill:#000000;fill-opacity:1;stroke:none;stroke-width:1px;stroke-linecap:butt;stroke-linejoin:miter;stroke-opacity:1"
             xml:space="preserve"><tspan
               style="font-size:29.33333397px"
               y="296.0784"
               x="568.29816"
               id="tspan1401-6-6-1-3-0"
               sodipodi:role="line">Version 1</tspan></text>
        </g>
      </g>
      <path
         inkscape:connector-curvature="0"
         id="path882-7-2"
         d="M 667.66577,335.17228 V 309.45799"
         style="opacity:0.5;fill:none;fill-rule:evenodd;stroke:#000000;stroke-width:2;stroke-linecap:butt;stroke-linejoin:miter;stroke-miterlimit:4;stroke-dasharray:none;stroke-opacity:1" />
      <path
         inkscape:connector-curvature="0"
         id="path882-3-5-3"
         d="M 667.66577,249.45799 V 223.7437"
         style="opacity:0.5;fill:none;fill-rule:evenodd;stroke:#000000;stroke-width:2;stroke-linecap:butt;stroke-linejoin:miter;stroke-miterlimit:4;stroke-dasharray:none;stroke-opacity:1" />
    </g>
    <path
       style="opacity:0.5;fill:none;fill-rule:evenodd;stroke:#000000;stroke-width:2;stroke-linecap:butt;stroke-linejoin:miter;stroke-miterlimit:4;stroke-dasharray:none;stroke-opacity:1;marker-start:url(#Arrow2Lstart);marker-end:url(#marker1073)"
       d="m 335.6807,637.34172 692.415,0"
       id="path882-6-9-5"
       inkscape:connector-curvature="0"
       sodipodi:nodetypes="cc" />
    <path
       style="opacity:0.5;fill:none;fill-rule:evenodd;stroke:#000000;stroke-width:2;stroke-linecap:butt;stroke-linejoin:miter;stroke-miterlimit:4;stroke-dasharray:none;stroke-opacity:1;marker-start:url(#Arrow2Lstart-3);marker-end:url(#marker1073-6)"
       d="M 328.5744,411.46335 519.95374,199.33132"
       id="path882-6-9-5-9"
       inkscape:connector-curvature="0"
       sodipodi:nodetypes="cc" />
    <path
       style="opacity:0.5;fill:none;fill-rule:evenodd;stroke:#000000;stroke-width:2;stroke-linecap:butt;stroke-linejoin:miter;stroke-miterlimit:4;stroke-dasharray:none;stroke-opacity:1;marker-start:url(#Arrow2Lstart-3-1);marker-end:url(#marker1073-6-7)"
       d="M 1039.1721,411.41616 847.7928,199.28412"
       id="path882-6-9-5-9-9"
       inkscape:connector-curvature="0"
       sodipodi:nodetypes="cc" />
  </g>
</svg>
